R Notebook
…
5031 different categorical variables is 5031 too many categorical variables to deal with. Flippant hummor aside, lets see how we can break that down. Luckily, the dataset came with a “category” attribute as well, and there are only 10 of those (HW: how’d I get 10). The problem is that each of the categories are extremely long, so that is going to be a headache for data visualization down the road. Lets deal with that problem now with some pattern matching. Pattern matching is essentially pulling out parts of strings that you want, and R makes the entire process extremely easy with the stringr package

regex = "^[:digit:]*"
string = trade_tab$category
trade_tab <- trade_tab %>%
  mutate(category_code = str_match(string,regex))
category_legend <- trade_tab %>%
  select(category_code,category) %>%
  group_by(category_code) %>%
  slice(1)
category_legend 

## # A tibble: 98 x 2
## # Groups:   category_code [98]
##    category_code category                                              
##    <chr>         <chr>                                                 
##  1 ""            all_commodities                                       
##  2 01            01_live_animals                                       
##  3 02            02_meat_and_edible_meat_offal                         
##  4 03            03_fish_crustaceans_molluscs_aquatic_invertebrates_ne 
##  5 04            04_dairy_products_eggs_honey_edible_animal_product_nes
##  6 05            05_products_of_animal_origin_nes                      
##  7 06            06_live_trees_plants_bulbs_roots_cut_flowers_etc      
##  8 07            07_edible_vegetables_and_certain_roots_and_tubers     
##  9 08            08_edible_fruit_nuts_peel_of_citrus_fruit_melons      
## 10 09            09_coffee_tea_mate_and_spices                         
## # ... with 88 more rows
…
# First lets find all the different categories that involve chicken
test <- trade_tab %>%
  filter(category_code=='01') %>%
  filter(flow=='Export') %>%
  filter(country_or_area %in% 
           c('USA','Germany','United Kingdom','China','Brazil','India','Russia')) %>%
  mutate(developed = ifelse(country_or_area %in% 
                              c('USA','Germany','United Kingdom'),1,0)) %>%
  group_by(year,developed) %>%
  summarise(price = (sum(as.numeric(trade_usd),na.rm = TRUE)/1000)/
              (sum(as.numeric(weight_kg),na.rm = TRUE)/1000))
test

## # A tibble: 55 x 3
## # Groups:   year [?]
##     year developed  price
##    <int>     <dbl>  <dbl>
##  1  1988      0    Inf   
##  2  1989      0      6.26
##  3  1990      0      6.55
##  4  1991      0      9.20
##  5  1991      1.00   3.15
##  6  1992      0    182   
##  7  1992      1.00   3.68
##  8  1993      0    127   
##  9  1993      1.00   3.97
## 10  1994      0    429   
## # ... with 45 more rows
…
## Original dataset 
trade_nom_change <- (trade_matrix_1 - trade_matrix_2) %>%
  magrittr::set_colnames(NULL) %>%
  as_data_frame() 
trade_nom_change <- trade_nom_change %>%
  mutate(category_code = trade_wide_df$category_code)

## Add Direction attribute that describes whether or not the exports for that item went up or down in 2011
outcome_df <- trade_wide_df %>%
  mutate(diff = `2012` - `2011`) %>%
  mutate(Direction = ifelse(diff>0, "up", "down")) %>%
  select(category_code, Direction)
outcome_df

## # A tibble: 98 x 2
##    category_code Direction
##    <chr>         <chr>    
##  1 ""            down     
##  2 01            up       
##  3 02            down     
##  4 03            up       
##  5 04            down     
##  6 05            up       
##  7 06            down     
##  8 07            down     
##  9 08            up       
## 10 09            up       
## # ... with 88 more rows

## Combine the two dataframes 
final_df <- trade_nom_change %>%
  inner_join(outcome_df, by="category_code") %>%
  mutate(Direction=factor(Direction, levels=c("down", "up"))) %>%
  select(-V28,-V27,-V26,-V25,-V24) %>%
  filter(!(category_code %in% c('','99')))
final_df

## # A tibble: 96 x 25
##       V1       V2    V3     V4      V5    V6    V7    V8    V9      V10
##    <dbl>    <dbl> <dbl>  <dbl>   <dbl> <dbl> <dbl> <dbl> <dbl>    <dbl>
##  1  1171   659     1008 2195      48.8  2739  1596 - 385 - 606 - 351   
##  2  4079  1294      647 3113   - 179    5669  4246   333   474 -1581   
##  3  3273  1006      738 1555    1065    1488  1107 - 361   732 - 430   
##  4  1914   349      756 7471   - 288    5341  6676 -2022   387 -   6.19
##  5   501     2.64   346  768      54.9   655   550   218   240 - 185   
##  6   649   170      627 2519    1382    1379 - 891   149  1826   202   
##  7   467   293    - 261 1101     464    2057  1740 - 136 - 134   553   
##  8   449   917      855  992     216    2566  1758   853  1297 - 110   
##  9  2779 - 555     1529   46.2   309    2229  3802 -1355 - 992  1889   
## 10  7433 -3204     1936 4188    2174    7247   135 - 882 - 495  4303   
## # ... with 86 more rows, and 15 more variables: V11 <dbl>, V12 <dbl>,
## #   V13 <dbl>, V14 <dbl>, V15 <dbl>, V16 <dbl>, V17 <dbl>, V18 <dbl>,
## #   V19 <dbl>, V20 <dbl>, V21 <dbl>, V22 <dbl>, V23 <dbl>,
## #   category_code <chr>, Direction <fct>
…
